Programming for Analytics in R- Nolan’s Book Club
…
sumTable <- cbcRFM %>% 
  group_by(rRFM, fRFM, mRFM) %>%
  summarize(meanM = round(mean(M), 2))

## `summarise()` has grouped output by 'rRFM', 'fRFM'. You can override using the
## `.groups` argument.

sumTable

## # A tibble: 27 × 4
## # Groups:   rRFM, fRFM [9]
##    rRFM  fRFM  mRFM  meanM
##    <ord> <ord> <ord> <dbl>
##  1 L     L     L      88.4
##  2 L     L     M     204. 
##  3 L     L     H     288. 
##  4 L     M     L      93.6
##  5 L     M     M     203. 
##  6 L     M     H     306. 
##  7 L     H     L     122. 
##  8 L     H     M     206. 
##  9 L     H     H     336. 
## 10 M     L     L     100. 
## # ℹ 17 more rows
…
